[
    {
        "file": "000.jpg",
        "person": "Mathilde Hamon",
        "business": "Le Fil de la Côte - Sellerie nautique",
        "cae": "CAE29",
        "author" : "Kalon Sardin"
    },
    {
        "file": "002.jpg",
        "person": "Mathieu Thomas",
        "business": "La Tête en l’air ! Girouettes de Ouessant",
        "cae": "CAE29",
        "author" : ""
    },
    {
        "file": "004.jpg",
        "person": "Laurent Bianchetti",
        "business": "LB - Translations",
        "cae": "Capentreprendre et Coopénates",
        "author" : "Lilliane Bianchetti"
    },
    {
        "file": "006.jpg",
        "person": "Benoit Verdier",
        "business": "Les frères Verdier - Communication Audiovisuel",
        "cae": "CAE Clarabis",
        "author" : "Camille Ferré"
    },
    {
        "file": "007.jpg",
        "person": "Bénédicte Le Lay",
        "business": "Chorégraphe / Coache scénique / Formatrice",
        "cae": "CAE Clara",
        "author" : "Camille Ferré"
    },
    {
        "file": "009.jpg",
        "person": "Bénédicte Vernier",
        "business": "Be Vernier - Créatrice de robe de mariée sur mesure",
        "cae": "CAE Clara",
        "author" : "Camille Ferré"
    },
    {
        "file": "003.jpg",
        "person": "Mathieu Thomas",
        "business": "La Tête en l’air ! Girouettes de Ouessant",
        "cae": "CAE29",
        "author" : "Noémie Letu"
    },
    {
        "file": "010.jpg",
        "person": "Dominique L'Étang",
        "business": "LGT LOGISTIC",
        "cae": "Cap Entreprendre",
        "author" : "Dominique L'Étang"
    },
    {
        "file": "013.jpg",
        "person": "Frédérique Fardeau",
        "business": "Ô Fredélices",
        "cae": "Cap Entreprendre",
        "author" : "Frédérique Fardeau"
    },
    {
        "file": "014.jpg",
        "person": "Alix Barlaguet aka MARICELA LIXA",
        "business": "Artiste spécialisée en arts, musique et recyclage",
        "cae": "CAE29",
        "author" : ""
    },
    {
        "file": "011.jpg",
        "person": "Léna Messerly",
        "business": "Inspir&vous Sophrologue-Relaxologue",
        "cae": "CAE29",
        "author" : ""
    },
    {
        "file": "012.jpg",
        "person": "Alice Pennors",
        "business": "Amstratgraph - Analyse stratégique",
        "cae": "CAE29",
        "author" : "CC-BY-SA Ray-Flex"
    }
]
